

Microchip Technology PIC LITE Macro Assembler V1.12 build 49521 
                                                                                               Mon Mar 04 22:32:47 2013

HI-TECH Software Omniscient Code Generator (Lite mode) build 49521
     1  0000                     opt subtitle "HI-TECH Software Omniscient Code Generator (Lite mode) build 49521"
     2                           opt subtitle "HI-TECH Software Omniscient Code Generator (Lite mode) build 49521"
     3                           
     4                           opt pagewidth 120
     5                           
     6                           	opt lm
     7                           
     8                           	processor	16F877
     9                           clrc	macro
    10  0000                     	endm
    11                           opt subtitle "HI-TECH Software Omniscient Code Generator (Lite mode) build 49521"
    12                           
    13  0000                     	endm
    14                           opt subtitle "HI-TECH Software Omniscient Code Generator (Lite mode) build 49521"
    15                           
    16  0000                     	endm
    17                           opt subtitle "HI-TECH Software Omniscient Code Generator (Lite mode) build 49521"
    18                           
    19  0000                     	endm
    20                           opt subtitle "HI-TECH Software Omniscient Code Generator (Lite mode) build 49521"
    21                           
    22  0000                     	endm
    23                           opt subtitle "HI-TECH Software Omniscient Code Generator (Lite mode) build 49521"
    24                           
    25  0000                     	endm
    26                           opt subtitle "HI-TECH Software Omniscient Code Generator (Lite mode) build 49521"
    27                           
    28  0000                     	endm
    29                           opt subtitle "HI-TECH Software Omniscient Code Generator (Lite mode) build 49521"
    30                           
    31  0000                     	endm
    32  0000                     indf	equ	0
    33  0000                     indf0	equ	0
    34  0002                     pc	equ	2
    35  0002                     pcl	equ	2
    36  0003                     status	equ	3
    37  0004                     fsr	equ	4
    38  0004                     fsr0	equ	4
    39  0001                     c	equ	1
    40  0000                     z	equ	0
    41  000A                     pclath	equ	10
    42                           opt subtitle "HI-TECH Software Omniscient Code Generator (Lite mode) build 49521"
    43  0000                     INDF equ 00h ;# 
    44                           opt subtitle "HI-TECH Software Omniscient Code Generator (Lite mode) build 49521"
    45  0001                     TMR0 equ 01h ;# 
    46                           opt subtitle "HI-TECH Software Omniscient Code Generator (Lite mode) build 49521"
    47  0002                     PCL equ 02h ;# 
    48                           opt subtitle "HI-TECH Software Omniscient Code Generator (Lite mode) build 49521"
    49  0003                     STATUS equ 03h ;# 
    50                           opt subtitle "HI-TECH Software Omniscient Code Generator (Lite mode) build 49521"
    51  0004                     FSR equ 04h ;# 
    52                           opt subtitle "HI-TECH Software Omniscient Code Generator (Lite mode) build 49521"
    53  0005                     PORTA equ 05h ;# 
    54                           opt subtitle "HI-TECH Software Omniscient Code Generator (Lite mode) build 49521"
    55  0006                     PORTB equ 06h ;# 
    56                           opt subtitle "HI-TECH Software Omniscient Code Generator (Lite mode) build 49521"
    57  0007                     PORTC equ 07h ;# 
    58                           opt subtitle "HI-TECH Software Omniscient Code Generator (Lite mode) build 49521"
    59  0008                     PORTD equ 08h ;# 
    60                           opt subtitle "HI-TECH Software Omniscient Code Generator (Lite mode) build 49521"
    61  0009                     PORTE equ 09h ;# 
    62                           opt subtitle "HI-TECH Software Omniscient Code Generator (Lite mode) build 49521"
    63  000A                     PCLATH equ 0Ah ;# 
    64                           opt subtitle "HI-TECH Software Omniscient Code Generator (Lite mode) build 49521"
    65  000B                     INTCON equ 0Bh ;# 
    66                           opt subtitle "HI-TECH Software Omniscient Code Generator (Lite mode) build 49521"
    67  000C                     PIR1 equ 0Ch ;# 
    68                           opt subtitle "HI-TECH Software Omniscient Code Generator (Lite mode) build 49521"
    69  000D                     PIR2 equ 0Dh ;# 
    70                           opt subtitle "HI-TECH Software Omniscient Code Generator (Lite mode) build 49521"
    71  000E                     TMR1 equ 0Eh ;# 
    72                           opt subtitle "HI-TECH Software Omniscient Code Generator (Lite mode) build 49521"
    73  000E                     TMR1L equ 0Eh ;# 
    74                           opt subtitle "HI-TECH Software Omniscient Code Generator (Lite mode) build 49521"
    75  000F                     TMR1H equ 0Fh ;# 
    76                           opt subtitle "HI-TECH Software Omniscient Code Generator (Lite mode) build 49521"
    77  0010                     T1CON equ 010h ;# 
    78                           opt subtitle "HI-TECH Software Omniscient Code Generator (Lite mode) build 49521"
    79  0011                     TMR2 equ 011h ;# 
    80                           opt subtitle "HI-TECH Software Omniscient Code Generator (Lite mode) build 49521"
    81  0012                     T2CON equ 012h ;# 
    82                           opt subtitle "HI-TECH Software Omniscient Code Generator (Lite mode) build 49521"
    83  0013                     SSPBUF equ 013h ;# 
    84                           opt subtitle "HI-TECH Software Omniscient Code Generator (Lite mode) build 49521"
    85  0014                     SSPCON equ 014h ;# 
    86                           opt subtitle "HI-TECH Software Omniscient Code Generator (Lite mode) build 49521"
    87  0015                     CCPR1 equ 015h ;# 
    88                           opt subtitle "HI-TECH Software Omniscient Code Generator (Lite mode) build 49521"
    89  0015                     CCPR1L equ 015h ;# 
    90                           opt subtitle "HI-TECH Software Omniscient Code Generator (Lite mode) build 49521"
    91  0016                     CCPR1H equ 016h ;# 
    92                           opt subtitle "HI-TECH Software Omniscient Code Generator (Lite mode) build 49521"
    93  0017                     CCP1CON equ 017h ;# 
    94                           opt subtitle "HI-TECH Software Omniscient Code Generator (Lite mode) build 49521"
    95  0018                     RCSTA equ 018h ;# 
    96                           opt subtitle "HI-TECH Software Omniscient Code Generator (Lite mode) build 49521"
    97  0019                     TXREG equ 019h ;# 
    98                           opt subtitle "HI-TECH Software Omniscient Code Generator (Lite mode) build 49521"
    99  001A                     RCREG equ 01Ah ;# 
   100                           opt subtitle "HI-TECH Software Omniscient Code Generator (Lite mode) build 49521"
   101  001B                     CCPR2 equ 01Bh ;# 
   102                           opt subtitle "HI-TECH Software Omniscient Code Generator (Lite mode) build 49521"
   103  001B                     CCPR2L equ 01Bh ;# 
   104                           opt subtitle "HI-TECH Software Omniscient Code Generator (Lite mode) build 49521"
   105  001C                     CCPR2H equ 01Ch ;# 
   106                           opt subtitle "HI-TECH Software Omniscient Code Generator (Lite mode) build 49521"
   107  001D                     CCP2CON equ 01Dh ;# 
   108                           opt subtitle "HI-TECH Software Omniscient Code Generator (Lite mode) build 49521"
   109  001E                     ADRESH equ 01Eh ;# 
   110                           opt subtitle "HI-TECH Software Omniscient Code Generator (Lite mode) build 49521"
   111  001F                     ADCON0 equ 01Fh ;# 
   112                           opt subtitle "HI-TECH Software Omniscient Code Generator (Lite mode) build 49521"
   113  0081                     OPTION_REG equ 081h ;# 
   114                           opt subtitle "HI-TECH Software Omniscient Code Generator (Lite mode) build 49521"
   115  0085                     TRISA equ 085h ;# 
   116                           opt subtitle "HI-TECH Software Omniscient Code Generator (Lite mode) build 49521"
   117  0086                     TRISB equ 086h ;# 
   118                           opt subtitle "HI-TECH Software Omniscient Code Generator (Lite mode) build 49521"
   119  0087                     TRISC equ 087h ;# 
   120                           opt subtitle "HI-TECH Software Omniscient Code Generator (Lite mode) build 49521"
   121  0088                     TRISD equ 088h ;# 
   122                           opt subtitle "HI-TECH Software Omniscient Code Generator (Lite mode) build 49521"
   123  0089                     TRISE equ 089h ;# 
   124                           opt subtitle "HI-TECH Software Omniscient Code Generator (Lite mode) build 49521"
   125  008C                     PIE1 equ 08Ch ;# 
   126                           opt subtitle "HI-TECH Software Omniscient Code Generator (Lite mode) build 49521"
   127  008D                     PIE2 equ 08Dh ;# 
   128                           opt subtitle "HI-TECH Software Omniscient Code Generator (Lite mode) build 49521"
   129  008E                     PCON equ 08Eh ;# 
   130                           opt subtitle "HI-TECH Software Omniscient Code Generator (Lite mode) build 49521"
   131  0091                     SSPCON2 equ 091h ;# 
   132                           opt subtitle "HI-TECH Software Omniscient Code Generator (Lite mode) build 49521"
   133  0092                     PR2 equ 092h ;# 
   134                           opt subtitle "HI-TECH Software Omniscient Code Generator (Lite mode) build 49521"
   135  0093                     SSPADD equ 093h ;# 
   136                           opt subtitle "HI-TECH Software Omniscient Code Generator (Lite mode) build 49521"
   137  0094                     SSPSTAT equ 094h ;# 
   138                           opt subtitle "HI-TECH Software Omniscient Code Generator (Lite mode) build 49521"
   139  0098                     TXSTA equ 098h ;# 
   140                           opt subtitle "HI-TECH Software Omniscient Code Generator (Lite mode) build 49521"
   141  0099                     SPBRG equ 099h ;# 
   142                           opt subtitle "HI-TECH Software Omniscient Code Generator (Lite mode) build 49521"
   143  009E                     ADRESL equ 09Eh ;# 
   144                           opt subtitle "HI-TECH Software Omniscient Code Generator (Lite mode) build 49521"
   145  009F                     ADCON1 equ 09Fh ;# 
   146                           opt subtitle "HI-TECH Software Omniscient Code Generator (Lite mode) build 49521"
   147  010C                     EEDATA equ 010Ch ;# 
   148                           opt subtitle "HI-TECH Software Omniscient Code Generator (Lite mode) build 49521"
   149  010D                     EEADR equ 010Dh ;# 
   150                           opt subtitle "HI-TECH Software Omniscient Code Generator (Lite mode) build 49521"
   151  010E                     EEDATH equ 010Eh ;# 
   152                           opt subtitle "HI-TECH Software Omniscient Code Generator (Lite mode) build 49521"
   153  010F                     EEADRH equ 010Fh ;# 
   154                           opt subtitle "HI-TECH Software Omniscient Code Generator (Lite mode) build 49521"
   155  018C                     EECON1 equ 018Ch ;# 
   156                           opt subtitle "HI-TECH Software Omniscient Code Generator (Lite mode) build 49521"
   157  018D                     EECON2 equ 018Dh ;# 
   158                           opt subtitle "HI-TECH Software Omniscient Code Generator (Lite mode) build 49521"
   159  0000                     INDF equ 00h ;# 
   160                           opt subtitle "HI-TECH Software Omniscient Code Generator (Lite mode) build 49521"
   161  0001                     TMR0 equ 01h ;# 
   162                           opt subtitle "HI-TECH Software Omniscient Code Generator (Lite mode) build 49521"
   163  0002                     PCL equ 02h ;# 
   164                           opt subtitle "HI-TECH Software Omniscient Code Generator (Lite mode) build 49521"
   165  0003                     STATUS equ 03h ;# 
   166                           opt subtitle "HI-TECH Software Omniscient Code Generator (Lite mode) build 49521"
   167  0004                     FSR equ 04h ;# 
   168                           opt subtitle "HI-TECH Software Omniscient Code Generator (Lite mode) build 49521"
   169  0005                     PORTA equ 05h ;# 
   170                           opt subtitle "HI-TECH Software Omniscient Code Generator (Lite mode) build 49521"
   171  0006                     PORTB equ 06h ;# 
   172                           opt subtitle "HI-TECH Software Omniscient Code Generator (Lite mode) build 49521"
   173  0007                     PORTC equ 07h ;# 
   174                           opt subtitle "HI-TECH Software Omniscient Code Generator (Lite mode) build 49521"
   175  0008                     PORTD equ 08h ;# 
   176                           opt subtitle "HI-TECH Software Omniscient Code Generator (Lite mode) build 49521"
   177  0009                     PORTE equ 09h ;# 
   178                           opt subtitle "HI-TECH Software Omniscient Code Generator (Lite mode) build 49521"
   179  000A                     PCLATH equ 0Ah ;# 
   180                           opt subtitle "HI-TECH Software Omniscient Code Generator (Lite mode) build 49521"
   181  000B                     INTCON equ 0Bh ;# 
   182                           opt subtitle "HI-TECH Software Omniscient Code Generator (Lite mode) build 49521"
   183  000C                     PIR1 equ 0Ch ;# 
   184                           opt subtitle "HI-TECH Software Omniscient Code Generator (Lite mode) build 49521"
   185  000D                     PIR2 equ 0Dh ;# 
   186                           opt subtitle "HI-TECH Software Omniscient Code Generator (Lite mode) build 49521"
   187  000E                     TMR1 equ 0Eh ;# 
   188                           opt subtitle "HI-TECH Software Omniscient Code Generator (Lite mode) build 49521"
   189  000E                     TMR1L equ 0Eh ;# 
   190                           opt subtitle "HI-TECH Software Omniscient Code Generator (Lite mode) build 49521"
   191  000F                     TMR1H equ 0Fh ;# 
   192                           opt subtitle "HI-TECH Software Omniscient Code Generator (Lite mode) build 49521"
   193  0010                     T1CON equ 010h ;# 
   194                           opt subtitle "HI-TECH Software Omniscient Code Generator (Lite mode) build 49521"
   195  0011                     TMR2 equ 011h ;# 
   196                           opt subtitle "HI-TECH Software Omniscient Code Generator (Lite mode) build 49521"
   197  0012                     T2CON equ 012h ;# 
   198                           opt subtitle "HI-TECH Software Omniscient Code Generator (Lite mode) build 49521"
   199  0013                     SSPBUF equ 013h ;# 
   200                           opt subtitle "HI-TECH Software Omniscient Code Generator (Lite mode) build 49521"
   201  0014                     SSPCON equ 014h ;# 
   202                           opt subtitle "HI-TECH Software Omniscient Code Generator (Lite mode) build 49521"
   203  0015                     CCPR1 equ 015h ;# 
   204                           opt subtitle "HI-TECH Software Omniscient Code Generator (Lite mode) build 49521"
   205  0015                     CCPR1L equ 015h ;# 
   206                           opt subtitle "HI-TECH Software Omniscient Code Generator (Lite mode) build 49521"
   207  0016                     CCPR1H equ 016h ;# 
   208                           opt subtitle "HI-TECH Software Omniscient Code Generator (Lite mode) build 49521"
   209  0017                     CCP1CON equ 017h ;# 
   210                           opt subtitle "HI-TECH Software Omniscient Code Generator (Lite mode) build 49521"
   211  0018                     RCSTA equ 018h ;# 
   212                           opt subtitle "HI-TECH Software Omniscient Code Generator (Lite mode) build 49521"
   213  0019                     TXREG equ 019h ;# 
   214                           opt subtitle "HI-TECH Software Omniscient Code Generator (Lite mode) build 49521"
   215  001A                     RCREG equ 01Ah ;# 
   216                           opt subtitle "HI-TECH Software Omniscient Code Generator (Lite mode) build 49521"
   217  001B                     CCPR2 equ 01Bh ;# 
   218                           opt subtitle "HI-TECH Software Omniscient Code Generator (Lite mode) build 49521"
   219  001B                     CCPR2L equ 01Bh ;# 
   220                           opt subtitle "HI-TECH Software Omniscient Code Generator (Lite mode) build 49521"
   221  001C                     CCPR2H equ 01Ch ;# 
   222                           opt subtitle "HI-TECH Software Omniscient Code Generator (Lite mode) build 49521"
   223  001D                     CCP2CON equ 01Dh ;# 
   224                           opt subtitle "HI-TECH Software Omniscient Code Generator (Lite mode) build 49521"
   225  001E                     ADRESH equ 01Eh ;# 
   226                           opt subtitle "HI-TECH Software Omniscient Code Generator (Lite mode) build 49521"
   227  001F                     ADCON0 equ 01Fh ;# 
   228                           opt subtitle "HI-TECH Software Omniscient Code Generator (Lite mode) build 49521"
   229  0081                     OPTION_REG equ 081h ;# 
   230                           opt subtitle "HI-TECH Software Omniscient Code Generator (Lite mode) build 49521"
   231  0085                     TRISA equ 085h ;# 
   232                           opt subtitle "HI-TECH Software Omniscient Code Generator (Lite mode) build 49521"
   233  0086                     TRISB equ 086h ;# 
   234                           opt subtitle "HI-TECH Software Omniscient Code Generator (Lite mode) build 49521"
   235  0087                     TRISC equ 087h ;# 
   236                           opt subtitle "HI-TECH Software Omniscient Code Generator (Lite mode) build 49521"
   237  0088                     TRISD equ 088h ;# 
   238                           opt subtitle "HI-TECH Software Omniscient Code Generator (Lite mode) build 49521"
   239  0089                     TRISE equ 089h ;# 
   240                           opt subtitle "HI-TECH Software Omniscient Code Generator (Lite mode) build 49521"
   241  008C                     PIE1 equ 08Ch ;# 
   242                           opt subtitle "HI-TECH Software Omniscient Code Generator (Lite mode) build 49521"
   243  008D                     PIE2 equ 08Dh ;# 
   244                           opt subtitle "HI-TECH Software Omniscient Code Generator (Lite mode) build 49521"
   245  008E                     PCON equ 08Eh ;# 
   246                           opt subtitle "HI-TECH Software Omniscient Code Generator (Lite mode) build 49521"
   247  0091                     SSPCON2 equ 091h ;# 
   248                           opt subtitle "HI-TECH Software Omniscient Code Generator (Lite mode) build 49521"
   249  0092                     PR2 equ 092h ;# 
   250                           opt subtitle "HI-TECH Software Omniscient Code Generator (Lite mode) build 49521"
   251  0093                     SSPADD equ 093h ;# 
   252                           opt subtitle "HI-TECH Software Omniscient Code Generator (Lite mode) build 49521"
   253  0094                     SSPSTAT equ 094h ;# 
   254                           opt subtitle "HI-TECH Software Omniscient Code Generator (Lite mode) build 49521"
   255  0098                     TXSTA equ 098h ;# 
   256                           opt subtitle "HI-TECH Software Omniscient Code Generator (Lite mode) build 49521"
   257  0099                     SPBRG equ 099h ;# 
   258                           opt subtitle "HI-TECH Software Omniscient Code Generator (Lite mode) build 49521"
   259  009E                     ADRESL equ 09Eh ;# 
   260                           opt subtitle "HI-TECH Software Omniscient Code Generator (Lite mode) build 49521"
   261  009F                     ADCON1 equ 09Fh ;# 
   262                           opt subtitle "HI-TECH Software Omniscient Code Generator (Lite mode) build 49521"
   263  010C                     EEDATA equ 010Ch ;# 
   264                           opt subtitle "HI-TECH Software Omniscient Code Generator (Lite mode) build 49521"
   265  010D                     EEADR equ 010Dh ;# 
   266                           opt subtitle "HI-TECH Software Omniscient Code Generator (Lite mode) build 49521"
   267  010E                     EEDATH equ 010Eh ;# 
   268                           opt subtitle "HI-TECH Software Omniscient Code Generator (Lite mode) build 49521"
   269  010F                     EEADRH equ 010Fh ;# 
   270                           opt subtitle "HI-TECH Software Omniscient Code Generator (Lite mode) build 49521"
   271  018C                     EECON1 equ 018Ch ;# 
   272                           opt subtitle "HI-TECH Software Omniscient Code Generator (Lite mode) build 49521"
   273  018D                     EECON2 equ 018Dh ;# 
   274                           opt subtitle "HI-TECH Software Omniscient Code Generator (Lite mode) build 49521"
   275  0000                     INDF equ 00h ;# 
   276                           opt subtitle "HI-TECH Software Omniscient Code Generator (Lite mode) build 49521"
   277  0001                     TMR0 equ 01h ;# 
   278                           opt subtitle "HI-TECH Software Omniscient Code Generator (Lite mode) build 49521"
   279  0002                     PCL equ 02h ;# 
   280                           opt subtitle "HI-TECH Software Omniscient Code Generator (Lite mode) build 49521"
   281  0003                     STATUS equ 03h ;# 
   282                           opt subtitle "HI-TECH Software Omniscient Code Generator (Lite mode) build 49521"
   283  0004                     FSR equ 04h ;# 
   284                           opt subtitle "HI-TECH Software Omniscient Code Generator (Lite mode) build 49521"
   285  0005                     PORTA equ 05h ;# 
   286                           opt subtitle "HI-TECH Software Omniscient Code Generator (Lite mode) build 49521"
   287  0006                     PORTB equ 06h ;# 
   288                           opt subtitle "HI-TECH Software Omniscient Code Generator (Lite mode) build 49521"
   289  0007                     PORTC equ 07h ;# 
   290                           opt subtitle "HI-TECH Software Omniscient Code Generator (Lite mode) build 49521"
   291  0008                     PORTD equ 08h ;# 
   292                           opt subtitle "HI-TECH Software Omniscient Code Generator (Lite mode) build 49521"
   293  0009                     PORTE equ 09h ;# 
   294                           opt subtitle "HI-TECH Software Omniscient Code Generator (Lite mode) build 49521"
   295  000A                     PCLATH equ 0Ah ;# 
   296                           opt subtitle "HI-TECH Software Omniscient Code Generator (Lite mode) build 49521"
   297  000B                     INTCON equ 0Bh ;# 
   298                           opt subtitle "HI-TECH Software Omniscient Code Generator (Lite mode) build 49521"
   299  000C                     PIR1 equ 0Ch ;# 
   300                           opt subtitle "HI-TECH Software Omniscient Code Generator (Lite mode) build 49521"
   301  000D                     PIR2 equ 0Dh ;# 
   302                           opt subtitle "HI-TECH Software Omniscient Code Generator (Lite mode) build 49521"
   303  000E                     TMR1 equ 0Eh ;# 
   304                           opt subtitle "HI-TECH Software Omniscient Code Generator (Lite mode) build 49521"
   305  000E                     TMR1L equ 0Eh ;# 
   306                           opt subtitle "HI-TECH Software Omniscient Code Generator (Lite mode) build 49521"
   307  000F                     TMR1H equ 0Fh ;# 
   308                           opt subtitle "HI-TECH Software Omniscient Code Generator (Lite mode) build 49521"
   309  0010                     T1CON equ 010h ;# 
   310                           opt subtitle "HI-TECH Software Omniscient Code Generator (Lite mode) build 49521"
   311  0011                     TMR2 equ 011h ;# 
   312                           opt subtitle "HI-TECH Software Omniscient Code Generator (Lite mode) build 49521"
   313  0012                     T2CON equ 012h ;# 
   314                           opt subtitle "HI-TECH Software Omniscient Code Generator (Lite mode) build 49521"
   315  0013                     SSPBUF equ 013h ;# 
   316                           opt subtitle "HI-TECH Software Omniscient Code Generator (Lite mode) build 49521"
   317  0014                     SSPCON equ 014h ;# 
   318                           opt subtitle "HI-TECH Software Omniscient Code Generator (Lite mode) build 49521"
   319  0015                     CCPR1 equ 015h ;# 
   320                           opt subtitle "HI-TECH Software Omniscient Code Generator (Lite mode) build 49521"
   321  0015                     CCPR1L equ 015h ;# 
   322                           opt subtitle "HI-TECH Software Omniscient Code Generator (Lite mode) build 49521"
   323  0016                     CCPR1H equ 016h ;# 
   324                           opt subtitle "HI-TECH Software Omniscient Code Generator (Lite mode) build 49521"
   325  0017                     CCP1CON equ 017h ;# 
   326                           opt subtitle "HI-TECH Software Omniscient Code Generator (Lite mode) build 49521"
   327  0018                     RCSTA equ 018h ;# 
   328                           opt subtitle "HI-TECH Software Omniscient Code Generator (Lite mode) build 49521"
   329  0019                     TXREG equ 019h ;# 
   330                           opt subtitle "HI-TECH Software Omniscient Code Generator (Lite mode) build 49521"
   331  001A                     RCREG equ 01Ah ;# 
   332                           opt subtitle "HI-TECH Software Omniscient Code Generator (Lite mode) build 49521"
   333  001B                     CCPR2 equ 01Bh ;# 
   334                           opt subtitle "HI-TECH Software Omniscient Code Generator (Lite mode) build 49521"
   335  001B                     CCPR2L equ 01Bh ;# 
   336                           opt subtitle "HI-TECH Software Omniscient Code Generator (Lite mode) build 49521"
   337  001C                     CCPR2H equ 01Ch ;# 
   338                           opt subtitle "HI-TECH Software Omniscient Code Generator (Lite mode) build 49521"
   339  001D                     CCP2CON equ 01Dh ;# 
   340                           opt subtitle "HI-TECH Software Omniscient Code Generator (Lite mode) build 49521"
   341  001E                     ADRESH equ 01Eh ;# 
   342                           opt subtitle "HI-TECH Software Omniscient Code Generator (Lite mode) build 49521"
   343  001F                     ADCON0 equ 01Fh ;# 
   344                           opt subtitle "HI-TECH Software Omniscient Code Generator (Lite mode) build 49521"
   345  0081                     OPTION_REG equ 081h ;# 
   346                           opt subtitle "HI-TECH Software Omniscient Code Generator (Lite mode) build 49521"
   347  0085                     TRISA equ 085h ;# 
   348                           opt subtitle "HI-TECH Software Omniscient Code Generator (Lite mode) build 49521"
   349  0086                     TRISB equ 086h ;# 
   350                           opt subtitle "HI-TECH Software Omniscient Code Generator (Lite mode) build 49521"
   351  0087                     TRISC equ 087h ;# 
   352                           opt subtitle "HI-TECH Software Omniscient Code Generator (Lite mode) build 49521"
   353  0088                     TRISD equ 088h ;# 
   354                           opt subtitle "HI-TECH Software Omniscient Code Generator (Lite mode) build 49521"
   355  0089                     TRISE equ 089h ;# 
   356                           opt subtitle "HI-TECH Software Omniscient Code Generator (Lite mode) build 49521"
   357  008C                     PIE1 equ 08Ch ;# 
   358                           opt subtitle "HI-TECH Software Omniscient Code Generator (Lite mode) build 49521"
   359  008D                     PIE2 equ 08Dh ;# 
   360                           opt subtitle "HI-TECH Software Omniscient Code Generator (Lite mode) build 49521"
   361  008E                     PCON equ 08Eh ;# 
   362                           opt subtitle "HI-TECH Software Omniscient Code Generator (Lite mode) build 49521"
   363  0091                     SSPCON2 equ 091h ;# 
   364                           opt subtitle "HI-TECH Software Omniscient Code Generator (Lite mode) build 49521"
   365  0092                     PR2 equ 092h ;# 
   366                           opt subtitle "HI-TECH Software Omniscient Code Generator (Lite mode) build 49521"
   367  0093                     SSPADD equ 093h ;# 
   368                           opt subtitle "HI-TECH Software Omniscient Code Generator (Lite mode) build 49521"
   369  0094                     SSPSTAT equ 094h ;# 
   370                           opt subtitle "HI-TECH Software Omniscient Code Generator (Lite mode) build 49521"
   371  0098                     TXSTA equ 098h ;# 
   372                           opt subtitle "HI-TECH Software Omniscient Code Generator (Lite mode) build 49521"
   373  0099                     SPBRG equ 099h ;# 
   374                           opt subtitle "HI-TECH Software Omniscient Code Generator (Lite mode) build 49521"
   375  009E                     ADRESL equ 09Eh ;# 
   376                           opt subtitle "HI-TECH Software Omniscient Code Generator (Lite mode) build 49521"
   377  009F                     ADCON1 equ 09Fh ;# 
   378                           opt subtitle "HI-TECH Software Omniscient Code Generator (Lite mode) build 49521"
   379  010C                     EEDATA equ 010Ch ;# 
   380                           opt subtitle "HI-TECH Software Omniscient Code Generator (Lite mode) build 49521"
   381  010D                     EEADR equ 010Dh ;# 
   382                           opt subtitle "HI-TECH Software Omniscient Code Generator (Lite mode) build 49521"
   383  010E                     EEDATH equ 010Eh ;# 
   384                           opt subtitle "HI-TECH Software Omniscient Code Generator (Lite mode) build 49521"
   385  010F                     EEADRH equ 010Fh ;# 
   386                           opt subtitle "HI-TECH Software Omniscient Code Generator (Lite mode) build 49521"
   387  018C                     EECON1 equ 018Ch ;# 
   388                           opt subtitle "HI-TECH Software Omniscient Code Generator (Lite mode) build 49521"
   389  018D                     EECON2 equ 018Dh ;# 
   390                           opt subtitle "HI-TECH Software Omniscient Code Generator (Lite mode) build 49521"
   391  0000                     INDF equ 00h ;# 
   392                           opt subtitle "HI-TECH Software Omniscient Code Generator (Lite mode) build 49521"
   393  0001                     TMR0 equ 01h ;# 
   394                           opt subtitle "HI-TECH Software Omniscient Code Generator (Lite mode) build 49521"
   395  0002                     PCL equ 02h ;# 
   396                           opt subtitle "HI-TECH Software Omniscient Code Generator (Lite mode) build 49521"
   397  0003                     STATUS equ 03h ;# 
   398                           opt subtitle "HI-TECH Software Omniscient Code Generator (Lite mode) build 49521"
   399  0004                     FSR equ 04h ;# 
   400                           opt subtitle "HI-TECH Software Omniscient Code Generator (Lite mode) build 49521"
   401  0005                     PORTA equ 05h ;# 
   402                           opt subtitle "HI-TECH Software Omniscient Code Generator (Lite mode) build 49521"
   403  0006                     PORTB equ 06h ;# 
   404                           opt subtitle "HI-TECH Software Omniscient Code Generator (Lite mode) build 49521"
   405  0007                     PORTC equ 07h ;# 
   406                           opt subtitle "HI-TECH Software Omniscient Code Generator (Lite mode) build 49521"
   407  0008                     PORTD equ 08h ;# 
   408                           opt subtitle "HI-TECH Software Omniscient Code Generator (Lite mode) build 49521"
   409  0009                     PORTE equ 09h ;# 
   410                           opt subtitle "HI-TECH Software Omniscient Code Generator (Lite mode) build 49521"
   411  000A                     PCLATH equ 0Ah ;# 
   412                           opt subtitle "HI-TECH Software Omniscient Code Generator (Lite mode) build 49521"
   413  000B                     INTCON equ 0Bh ;# 
   414                           opt subtitle "HI-TECH Software Omniscient Code Generator (Lite mode) build 49521"
   415  000C                     PIR1 equ 0Ch ;# 
   416                           opt subtitle "HI-TECH Software Omniscient Code Generator (Lite mode) build 49521"
   417  000D                     PIR2 equ 0Dh ;# 
   418                           opt subtitle "HI-TECH Software Omniscient Code Generator (Lite mode) build 49521"
   419  000E                     TMR1 equ 0Eh ;# 
   420                           opt subtitle "HI-TECH Software Omniscient Code Generator (Lite mode) build 49521"
   421  000E                     TMR1L equ 0Eh ;# 
   422                           opt subtitle "HI-TECH Software Omniscient Code Generator (Lite mode) build 49521"
   423  000F                     TMR1H equ 0Fh ;# 
   424                           opt subtitle "HI-TECH Software Omniscient Code Generator (Lite mode) build 49521"
   425  0010                     T1CON equ 010h ;# 
   426                           opt subtitle "HI-TECH Software Omniscient Code Generator (Lite mode) build 49521"
   427  0011                     TMR2 equ 011h ;# 
   428                           opt subtitle "HI-TECH Software Omniscient Code Generator (Lite mode) build 49521"
   429  0012                     T2CON equ 012h ;# 
   430                           opt subtitle "HI-TECH Software Omniscient Code Generator (Lite mode) build 49521"
   431  0013                     SSPBUF equ 013h ;# 
   432                           opt subtitle "HI-TECH Software Omniscient Code Generator (Lite mode) build 49521"
   433  0014                     SSPCON equ 014h ;# 
   434                           opt subtitle "HI-TECH Software Omniscient Code Generator (Lite mode) build 49521"
   435  0015                     CCPR1 equ 015h ;# 
   436                           opt subtitle "HI-TECH Software Omniscient Code Generator (Lite mode) build 49521"
   437  0015                     CCPR1L equ 015h ;# 
   438                           opt subtitle "HI-TECH Software Omniscient Code Generator (Lite mode) build 49521"
   439  0016                     CCPR1H equ 016h ;# 
   440                           opt subtitle "HI-TECH Software Omniscient Code Generator (Lite mode) build 49521"
   441  0017                     CCP1CON equ 017h ;# 
   442                           opt subtitle "HI-TECH Software Omniscient Code Generator (Lite mode) build 49521"
   443  0018                     RCSTA equ 018h ;# 
   444                           opt subtitle "HI-TECH Software Omniscient Code Generator (Lite mode) build 49521"
   445  0019                     TXREG equ 019h ;# 
   446                           opt subtitle "HI-TECH Software Omniscient Code Generator (Lite mode) build 49521"
   447  001A                     RCREG equ 01Ah ;# 
   448                           opt subtitle "HI-TECH Software Omniscient Code Generator (Lite mode) build 49521"
   449  001B                     CCPR2 equ 01Bh ;# 
   450                           opt subtitle "HI-TECH Software Omniscient Code Generator (Lite mode) build 49521"
   451  001B                     CCPR2L equ 01Bh ;# 
   452                           opt subtitle "HI-TECH Software Omniscient Code Generator (Lite mode) build 49521"
   453  001C                     CCPR2H equ 01Ch ;# 
   454                           opt subtitle "HI-TECH Software Omniscient Code Generator (Lite mode) build 49521"
   455  001D                     CCP2CON equ 01Dh ;# 
   456                           opt subtitle "HI-TECH Software Omniscient Code Generator (Lite mode) build 49521"
   457  001E                     ADRESH equ 01Eh ;# 
   458                           opt subtitle "HI-TECH Software Omniscient Code Generator (Lite mode) build 49521"
   459  001F                     ADCON0 equ 01Fh ;# 
   460                           opt subtitle "HI-TECH Software Omniscient Code Generator (Lite mode) build 49521"
   461  0081                     OPTION_REG equ 081h ;# 
   462                           opt subtitle "HI-TECH Software Omniscient Code Generator (Lite mode) build 49521"
   463  0085                     TRISA equ 085h ;# 
   464                           opt subtitle "HI-TECH Software Omniscient Code Generator (Lite mode) build 49521"
   465  0086                     TRISB equ 086h ;# 
   466                           opt subtitle "HI-TECH Software Omniscient Code Generator (Lite mode) build 49521"
   467  0087                     TRISC equ 087h ;# 
   468                           opt subtitle "HI-TECH Software Omniscient Code Generator (Lite mode) build 49521"
   469  0088                     TRISD equ 088h ;# 
   470                           opt subtitle "HI-TECH Software Omniscient Code Generator (Lite mode) build 49521"
   471  0089                     TRISE equ 089h ;# 
   472                           opt subtitle "HI-TECH Software Omniscient Code Generator (Lite mode) build 49521"
   473  008C                     PIE1 equ 08Ch ;# 
   474                           opt subtitle "HI-TECH Software Omniscient Code Generator (Lite mode) build 49521"
   475  008D                     PIE2 equ 08Dh ;# 
   476                           opt subtitle "HI-TECH Software Omniscient Code Generator (Lite mode) build 49521"
   477  008E                     PCON equ 08Eh ;# 
   478                           opt subtitle "HI-TECH Software Omniscient Code Generator (Lite mode) build 49521"
   479  0091                     SSPCON2 equ 091h ;# 
   480                           opt subtitle "HI-TECH Software Omniscient Code Generator (Lite mode) build 49521"
   481  0092                     PR2 equ 092h ;# 
   482                           opt subtitle "HI-TECH Software Omniscient Code Generator (Lite mode) build 49521"
   483  0093                     SSPADD equ 093h ;# 
   484                           opt subtitle "HI-TECH Software Omniscient Code Generator (Lite mode) build 49521"
   485  0094                     SSPSTAT equ 094h ;# 
   486                           opt subtitle "HI-TECH Software Omniscient Code Generator (Lite mode) build 49521"
   487  0098                     TXSTA equ 098h ;# 
   488                           opt subtitle "HI-TECH Software Omniscient Code Generator (Lite mode) build 49521"
   489  0099                     SPBRG equ 099h ;# 
   490                           opt subtitle "HI-TECH Software Omniscient Code Generator (Lite mode) build 49521"
   491  009E                     ADRESL equ 09Eh ;# 
   492                           opt subtitle "HI-TECH Software Omniscient Code Generator (Lite mode) build 49521"
   493  009F                     ADCON1 equ 09Fh ;# 
   494                           opt subtitle "HI-TECH Software Omniscient Code Generator (Lite mode) build 49521"
   495  010C                     EEDATA equ 010Ch ;# 
   496                           opt subtitle "HI-TECH Software Omniscient Code Generator (Lite mode) build 49521"
   497  010D                     EEADR equ 010Dh ;# 
   498                           opt subtitle "HI-TECH Software Omniscient Code Generator (Lite mode) build 49521"
   499  010E                     EEDATH equ 010Eh ;# 
   500                           opt subtitle "HI-TECH Software Omniscient Code Generator (Lite mode) build 49521"
   501  010F                     EEADRH equ 010Fh ;# 
   502                           opt subtitle "HI-TECH Software Omniscient Code Generator (Lite mode) build 49521"
   503  018C                     EECON1 equ 018Ch ;# 
   504                           opt subtitle "HI-TECH Software Omniscient Code Generator (Lite mode) build 49521"
   505  018D                     EECON2 equ 018Dh ;# 
   506                           opt subtitle "HI-TECH Software Omniscient Code Generator (Lite mode) build 49521"
   507  0000                     INDF equ 00h ;# 
   508                           opt subtitle "HI-TECH Software Omniscient Code Generator (Lite mode) build 49521"
   509  0001                     TMR0 equ 01h ;# 
   510                           opt subtitle "HI-TECH Software Omniscient Code Generator (Lite mode) build 49521"
   511  0002                     PCL equ 02h ;# 
   512                           opt subtitle "HI-TECH Software Omniscient Code Generator (Lite mode) build 49521"
   513  0003                     STATUS equ 03h ;# 
   514                           opt subtitle "HI-TECH Software Omniscient Code Generator (Lite mode) build 49521"
   515  0004                     FSR equ 04h ;# 
   516                           opt subtitle "HI-TECH Software Omniscient Code Generator (Lite mode) build 49521"
   517  0005                     PORTA equ 05h ;# 
   518                           opt subtitle "HI-TECH Software Omniscient Code Generator (Lite mode) build 49521"
   519  0006                     PORTB equ 06h ;# 
   520                           opt subtitle "HI-TECH Software Omniscient Code Generator (Lite mode) build 49521"
   521  0007                     PORTC equ 07h ;# 
   522                           opt subtitle "HI-TECH Software Omniscient Code Generator (Lite mode) build 49521"
   523  0008                     PORTD equ 08h ;# 
   524                           opt subtitle "HI-TECH Software Omniscient Code Generator (Lite mode) build 49521"
   525  0009                     PORTE equ 09h ;# 
   526                           opt subtitle "HI-TECH Software Omniscient Code Generator (Lite mode) build 49521"
   527  000A                     PCLATH equ 0Ah ;# 
   528                           opt subtitle "HI-TECH Software Omniscient Code Generator (Lite mode) build 49521"
   529  000B                     INTCON equ 0Bh ;# 
   530                           opt subtitle "HI-TECH Software Omniscient Code Generator (Lite mode) build 49521"
   531  000C                     PIR1 equ 0Ch ;# 
   532                           opt subtitle "HI-TECH Software Omniscient Code Generator (Lite mode) build 49521"
   533  000D                     PIR2 equ 0Dh ;# 
   534                           opt subtitle "HI-TECH Software Omniscient Code Generator (Lite mode) build 49521"
   535  000E                     TMR1 equ 0Eh ;# 
   536                           opt subtitle "HI-TECH Software Omniscient Code Generator (Lite mode) build 49521"
   537  000E                     TMR1L equ 0Eh ;# 
   538                           opt subtitle "HI-TECH Software Omniscient Code Generator (Lite mode) build 49521"
   539  000F                     TMR1H equ 0Fh ;# 
   540                           opt subtitle "HI-TECH Software Omniscient Code Generator (Lite mode) build 49521"
   541  0010                     T1CON equ 010h ;# 
   542                           opt subtitle "HI-TECH Software Omniscient Code Generator (Lite mode) build 49521"
   543  0011                     TMR2 equ 011h ;# 
   544                           opt subtitle "HI-TECH Software Omniscient Code Generator (Lite mode) build 49521"
   545  0012                     T2CON equ 012h ;# 
   546                           opt subtitle "HI-TECH Software Omniscient Code Generator (Lite mode) build 49521"
   547  0013                     SSPBUF equ 013h ;# 
   548                           opt subtitle "HI-TECH Software Omniscient Code Generator (Lite mode) build 49521"
   549  0014                     SSPCON equ 014h ;# 
   550                           opt subtitle "HI-TECH Software Omniscient Code Generator (Lite mode) build 49521"
   551  0015                     CCPR1 equ 015h ;# 
   552                           opt subtitle "HI-TECH Software Omniscient Code Generator (Lite mode) build 49521"
   553  0015                     CCPR1L equ 015h ;# 
   554                           opt subtitle "HI-TECH Software Omniscient Code Generator (Lite mode) build 49521"
   555  0016                     CCPR1H equ 016h ;# 
   556                           opt subtitle "HI-TECH Software Omniscient Code Generator (Lite mode) build 49521"
   557  0017                     CCP1CON equ 017h ;# 
   558                           opt subtitle "HI-TECH Software Omniscient Code Generator (Lite mode) build 49521"
   559  0018                     RCSTA equ 018h ;# 
   560                           opt subtitle "HI-TECH Software Omniscient Code Generator (Lite mode) build 49521"
   561  0019                     TXREG equ 019h ;# 
   562                           opt subtitle "HI-TECH Software Omniscient Code Generator (Lite mode) build 49521"
   563  001A                     RCREG equ 01Ah ;# 
   564                           opt subtitle "HI-TECH Software Omniscient Code Generator (Lite mode) build 49521"
   565  001B                     CCPR2 equ 01Bh ;# 
   566                           opt subtitle "HI-TECH Software Omniscient Code Generator (Lite mode) build 49521"
   567  001B                     CCPR2L equ 01Bh ;# 
   568                           opt subtitle "HI-TECH Software Omniscient Code Generator (Lite mode) build 49521"
   569  001C                     CCPR2H equ 01Ch ;# 
   570                           opt subtitle "HI-TECH Software Omniscient Code Generator (Lite mode) build 49521"
   571  001D                     CCP2CON equ 01Dh ;# 
   572                           opt subtitle "HI-TECH Software Omniscient Code Generator (Lite mode) build 49521"
   573  001E                     ADRESH equ 01Eh ;# 
   574                           opt subtitle "HI-TECH Software Omniscient Code Generator (Lite mode) build 49521"
   575  001F                     ADCON0 equ 01Fh ;# 
   576                           opt subtitle "HI-TECH Software Omniscient Code Generator (Lite mode) build 49521"
   577  0081                     OPTION_REG equ 081h ;# 
   578                           opt subtitle "HI-TECH Software Omniscient Code Generator (Lite mode) build 49521"
   579  0085                     TRISA equ 085h ;# 
   580                           opt subtitle "HI-TECH Software Omniscient Code Generator (Lite mode) build 49521"
   581  0086                     TRISB equ 086h ;# 
   582                           opt subtitle "HI-TECH Software Omniscient Code Generator (Lite mode) build 49521"
   583  0087                     TRISC equ 087h ;# 
   584                           opt subtitle "HI-TECH Software Omniscient Code Generator (Lite mode) build 49521"
   585  0088                     TRISD equ 088h ;# 
   586                           opt subtitle "HI-TECH Software Omniscient Code Generator (Lite mode) build 49521"
   587  0089                     TRISE equ 089h ;# 
   588                           opt subtitle "HI-TECH Software Omniscient Code Generator (Lite mode) build 49521"
   589  008C                     PIE1 equ 08Ch ;# 
   590                           opt subtitle "HI-TECH Software Omniscient Code Generator (Lite mode) build 49521"
   591  008D                     PIE2 equ 08Dh ;# 
   592                           opt subtitle "HI-TECH Software Omniscient Code Generator (Lite mode) build 49521"
   593  008E                     PCON equ 08Eh ;# 
   594                           opt subtitle "HI-TECH Software Omniscient Code Generator (Lite mode) build 49521"
   595  0091                     SSPCON2 equ 091h ;# 
   596                           opt subtitle "HI-TECH Software Omniscient Code Generator (Lite mode) build 49521"
   597  0092                     PR2 equ 092h ;# 
   598                           opt subtitle "HI-TECH Software Omniscient Code Generator (Lite mode) build 49521"
   599  0093                     SSPADD equ 093h ;# 
   600                           opt subtitle "HI-TECH Software Omniscient Code Generator (Lite mode) build 49521"
   601  0094                     SSPSTAT equ 094h ;# 
   602                           opt subtitle "HI-TECH Software Omniscient Code Generator (Lite mode) build 49521"
   603  0098                     TXSTA equ 098h ;# 
   604                           opt subtitle "HI-TECH Software Omniscient Code Generator (Lite mode) build 49521"
   605  0099                     SPBRG equ 099h ;# 
   606                           opt subtitle "HI-TECH Software Omniscient Code Generator (Lite mode) build 49521"
   607  009E                     ADRESL equ 09Eh ;# 
   608                           opt subtitle "HI-TECH Software Omniscient Code Generator (Lite mode) build 49521"
   609  009F                     ADCON1 equ 09Fh ;# 
   610                           opt subtitle "HI-TECH Software Omniscient Code Generator (Lite mode) build 49521"
   611  010C                     EEDATA equ 010Ch ;# 
   612                           opt subtitle "HI-TECH Software Omniscient Code Generator (Lite mode) build 49521"
   613  010D                     EEADR equ 010Dh ;# 
   614                           opt subtitle "HI-TECH Software Omniscient Code Generator (Lite mode) build 49521"
   615  010E                     EEDATH equ 010Eh ;# 
   616                           opt subtitle "HI-TECH Software Omniscient Code Generator (Lite mode) build 49521"
   617  010F                     EEADRH equ 010Fh ;# 
   618                           opt subtitle "HI-TECH Software Omniscient Code Generator (Lite mode) build 49521"
   619  018C                     EECON1 equ 018Ch ;# 
   620                           opt subtitle "HI-TECH Software Omniscient Code Generator (Lite mode) build 49521"
   621  018D                     EECON2 equ 018Dh ;# 
   622                           opt subtitle "HI-TECH Software Omniscient Code Generator (Lite mode) build 49521"
   623                           
   624                           opt pagewidth 120
   625                           
   626                           	opt lm
   627                           
   628                           	processor	16F877
   629                           clrc	macro
   630                           	bcf	3,0
   631  0000                     __ptext8:	;psect for function _isr
   632  0020                     ___resetbits	set	32
   633                           opt subtitle "HI-TECH Software Omniscient Code Generator (Lite mode) build 49521"
   634                           
   635                           opt pagewidth 120
   636  0103                     ___powerdown	set	259
   637                           opt subtitle "HI-TECH Software Omniscient Code Generator (Lite mode) build 49521"
   638                           
   639                           opt pagewidth 120
   640  0104                     ___timeout	set	260
   641                           opt subtitle "HI-TECH Software Omniscient Code Generator (Lite mode) build 49521"
   642                           
   643                           opt pagewidth 120
   644                           
   645  0000                     __CFG_BOREN$ON equ 0x0
   646                           opt subtitle "HI-TECH Software Omniscient Code Generator (Lite mode) build 49521"
   647  0000                     __CFG_CPD$OFF equ 0x0
   648                           opt subtitle "HI-TECH Software Omniscient Code Generator (Lite mode) build 49521"
   649  0000                     __CFG_WRT$ON equ 0x0
   650                           opt subtitle "HI-TECH Software Omniscient Code Generator (Lite mode) build 49521"
   651  0000                     __CFG_FOSC$HS equ 0x0
   652                           opt subtitle "HI-TECH Software Omniscient Code Generator (Lite mode) build 49521"
   653  0000                     __CFG_WDTE$OFF equ 0x0
   654                           opt subtitle "HI-TECH Software Omniscient Code Generator (Lite mode) build 49521"
   655  0000                     __CFG_CP$OFF equ 0x0
   656                           opt subtitle "HI-TECH Software Omniscient Code Generator (Lite mode) build 49521"
   657  0000                     __CFG_LVP$ON equ 0x0
   658                           opt subtitle "HI-TECH Software Omniscient Code Generator (Lite mode) build 49521"
   659  0000                     __CFG_PWRTE$ON equ 0x0
   660                           opt subtitle "HI-TECH Software Omniscient Code Generator (Lite mode) build 49521"
   661                           
   662                           opt pagewidth 120
   663                           
   664  0031                     start_initialization:
   665                           opt subtitle "HI-TECH Software Omniscient Code Generator (Lite mode) build 49521"
   666                           
   667  0031                     __initialization:
   668                           opt subtitle "HI-TECH Software Omniscient Code Generator (Lite mode) build 49521"
   669                           
   670                           opt pagewidth 120
   671                           
   672                           	opt lm
   673  0031                     end_of_initialization:
   674  0031                     __end_of__initialization:clrf status
      + 0031  0183               	clrf	3
   675  0032  120A  118A  2818   ljmp _main	;jump to C main() function
   676                           opt subtitle "HI-TECH Software Omniscient Code Generator (Lite mode) build 49521"
   677                           
   678  0070                     __pcstackCOMMON:
   679  0070                     ?_ConfigureOscillator:	; 0 bytes @ 0x0
   680  0070                     ?_InitApp:	; 0 bytes @ 0x0
   681  0070                     ?_isr:	; 0 bytes @ 0x0
   682  0070                     ??_isr:	; 0 bytes @ 0x0
   683  0070                     ?_main:	; 0 bytes @ 0x0
   684  0070                     	ds	4
   685  0074                     ??_ConfigureOscillator:	; 0 bytes @ 0x4
   686  0074                     ??_InitApp:	; 0 bytes @ 0x4
   687  0074                     ??_main:	; 0 bytes @ 0x4
   688                           opt subtitle "HI-TECH Software Omniscient Code Generator (Lite mode) build 49521"
   689                           
   690                           opt pagewidth 120
   691                           
   692                           	opt lm
   693                           
   694                           	processor	16F877
   695                           clrc	macro
   696                           	bcf	3,0
   697                           	endm
   698                           clrz	macro
   699                           	bcf	3,2
   700                           	endm
   701                           setc	macro
   702                           	bsf	3,0
   703                           	endm
   704                           setz	macro
   705                           	bsf	3,2
   706                           	endm
   707                           skipc	macro
   708                           	btfss	3,0
   709                           	endm
   710                           skipz	macro
   711                           	btfss	3,2
   712                           	endm
   713                           skipnc	macro
   714                           	btfsc	3,0
   715                           	endm
   716                           skipnz	macro
   717                           	btfsc	3,2
   718                           	endm
   719                           indf	equ	0
   720                           indf0	equ	0
   721                           pc	equ	2
   722                           pcl	equ	2
   723                           status	equ	3
   724                           fsr	equ	4
   725                           fsr0	equ	4
   726                           c	equ	1
   727                           z	equ	0
   728                           pclath	equ	10
   729                           # 46 "C:/Program Files (x86)/Microchip/xc8/v1.12/include\pic16f877.h"
   730                           INDF equ 00h ;# 
   731                           # 52 "C:/Program Files (x86)/Microchip/xc8/v1.12/include\pic16f877.h"
   732                           TMR0 equ 01h ;# 
   733                           # 58 "C:/Program Files (x86)/Microchip/xc8/v1.12/include\pic16f877.h"
   734                           PCL equ 02h ;# 
   735                           # 64 "C:/Program Files (x86)/Microchip/xc8/v1.12/include\pic16f877.h"
   736                           STATUS equ 03h ;# 
   737                           # 151 "C:/Program Files (x86)/Microchip/xc8/v1.12/include\pic16f877.h"
   738                           FSR equ 04h ;# 
   739                           # 157 "C:/Program Files (x86)/Microchip/xc8/v1.12/include\pic16f877.h"
   740                           PORTA equ 05h ;# 
   741                           # 206 "C:/Program Files (x86)/Microchip/xc8/v1.12/include\pic16f877.h"
   742                           PORTB equ 06h ;# 
   743                           # 267 "C:/Program Files (x86)/Microchip/xc8/v1.12/include\pic16f877.h"
   744                           PORTC equ 07h ;# 
   745                           # 328 "C:/Program Files (x86)/Microchip/xc8/v1.12/include\pic16f877.h"
   746                           PORTD equ 08h ;# 
   747                           # 389 "C:/Program Files (x86)/Microchip/xc8/v1.12/include\pic16f877.h"
   748                           PORTE equ 09h ;# 
   749                           # 420 "C:/Program Files (x86)/Microchip/xc8/v1.12/include\pic16f877.h"
   750                           PCLATH equ 0Ah ;# 
   751                           # 439 "C:/Program Files (x86)/Microchip/xc8/v1.12/include\pic16f877.h"
   752                           INTCON equ 0Bh ;# 
   753                           # 516 "C:/Program Files (x86)/Microchip/xc8/v1.12/include\pic16f877.h"
   754                           PIR1 equ 0Ch ;# 
   755                           # 577 "C:/Program Files (x86)/Microchip/xc8/v1.12/include\pic16f877.h"
   756                           PIR2 equ 0Dh ;# 
   757                           # 609 "C:/Program Files (x86)/Microchip/xc8/v1.12/include\pic16f877.h"
   758                           TMR1 equ 0Eh ;# 
   759                           # 615 "C:/Program Files (x86)/Microchip/xc8/v1.12/include\pic16f877.h"
   760                           TMR1L equ 0Eh ;# 
   761                           # 621 "C:/Program Files (x86)/Microchip/xc8/v1.12/include\pic16f877.h"
   762                           TMR1H equ 0Fh ;# 
   763                           # 627 "C:/Program Files (x86)/Microchip/xc8/v1.12/include\pic16f877.h"
   764                           T1CON equ 010h ;# 
   765                           # 703 "C:/Program Files (x86)/Microchip/xc8/v1.12/include\pic16f877.h"
   766                           TMR2 equ 011h ;# 
   767                           # 709 "C:/Program Files (x86)/Microchip/xc8/v1.12/include\pic16f877.h"
   768                           T2CON equ 012h ;# 
   769                           # 779 "C:/Program Files (x86)/Microchip/xc8/v1.12/include\pic16f877.h"
   770                           SSPBUF equ 013h ;# 
   771                           # 785 "C:/Program Files (x86)/Microchip/xc8/v1.12/include\pic16f877.h"
   772                           SSPCON equ 014h ;# 
   773                           # 854 "C:/Program Files (x86)/Microchip/xc8/v1.12/include\pic16f877.h"
   774                           CCPR1 equ 015h ;# 
   775                           # 860 "C:/Program Files (x86)/Microchip/xc8/v1.12/include\pic16f877.h"
   776                           CCPR1L equ 015h ;# 
   777                           # 866 "C:/Program Files (x86)/Microchip/xc8/v1.12/include\pic16f877.h"
   778                           CCPR1H equ 016h ;# 
   779                           # 872 "C:/Program Files (x86)/Microchip/xc8/v1.12/include\pic16f877.h"
   780                           CCP1CON equ 017h ;# 
   781                           # 929 "C:/Program Files (x86)/Microchip/xc8/v1.12/include\pic16f877.h"
   782                           RCSTA equ 018h ;# 
   783                           # 1023 "C:/Program Files (x86)/Microchip/xc8/v1.12/include\pic16f877.h"
   784                           TXREG equ 019h ;# 
   785                           # 1029 "C:/Program Files (x86)/Microchip/xc8/v1.12/include\pic16f877.h"
   786                           RCREG equ 01Ah ;# 
   787                           # 1035 "C:/Program Files (x86)/Microchip/xc8/v1.12/include\pic16f877.h"
   788                           CCPR2 equ 01Bh ;# 
   789                           # 1041 "C:/Program Files (x86)/Microchip/xc8/v1.12/include\pic16f877.h"
   790                           CCPR2L equ 01Bh ;# 
   791                           # 1047 "C:/Program Files (x86)/Microchip/xc8/v1.12/include\pic16f877.h"
   792                           CCPR2H equ 01Ch ;# 
   793                           # 1053 "C:/Program Files (x86)/Microchip/xc8/v1.12/include\pic16f877.h"
   794                           CCP2CON equ 01Dh ;# 
   795                           # 1110 "C:/Program Files (x86)/Microchip/xc8/v1.12/include\pic16f877.h"
   796                           ADRESH equ 01Eh ;# 
   797                           # 1116 "C:/Program Files (x86)/Microchip/xc8/v1.12/include\pic16f877.h"
   798                           ADCON0 equ 01Fh ;# 
   799                           # 1211 "C:/Program Files (x86)/Microchip/xc8/v1.12/include\pic16f877.h"
   800                           OPTION_REG equ 081h ;# 
   801                           # 1280 "C:/Program Files (x86)/Microchip/xc8/v1.12/include\pic16f877.h"
   802                           TRISA equ 085h ;# 
   803                           # 1329 "C:/Program Files (x86)/Microchip/xc8/v1.12/include\pic16f877.h"
   804                           TRISB equ 086h ;# 
   805                           # 1390 "C:/Program Files (x86)/Microchip/xc8/v1.12/include\pic16f877.h"
   806                           TRISC equ 087h ;# 
   807                           # 1451 "C:/Program Files (x86)/Microchip/xc8/v1.12/include\pic16f877.h"
   808                           TRISD equ 088h ;# 
   809                           # 1512 "C:/Program Files (x86)/Microchip/xc8/v1.12/include\pic16f877.h"
   810                           TRISE equ 089h ;# 
   811                           # 1568 "C:/Program Files (x86)/Microchip/xc8/v1.12/include\pic16f877.h"
   812                           PIE1 equ 08Ch ;# 
   813                           # 1629 "C:/Program Files (x86)/Microchip/xc8/v1.12/include\pic16f877.h"
   814                           PIE2 equ 08Dh ;# 
   815                           # 1661 "C:/Program Files (x86)/Microchip/xc8/v1.12/include\pic16f877.h"
   816                           PCON equ 08Eh ;# 
   817                           # 1694 "C:/Program Files (x86)/Microchip/xc8/v1.12/include\pic16f877.h"
   818                           SSPCON2 equ 091h ;# 
   819                           # 1755 "C:/Program Files (x86)/Microchip/xc8/v1.12/include\pic16f877.h"
   820                           PR2 equ 092h ;# 
   821                           # 1761 "C:/Program Files (x86)/Microchip/xc8/v1.12/include\pic16f877.h"
   822                           SSPADD equ 093h ;# 
   823                           # 1767 "C:/Program Files (x86)/Microchip/xc8/v1.12/include\pic16f877.h"
   824                           SSPSTAT equ 094h ;# 
   825                           # 1935 "C:/Program Files (x86)/Microchip/xc8/v1.12/include\pic16f877.h"
   826                           TXSTA equ 098h ;# 
   827                           # 2015 "C:/Program Files (x86)/Microchip/xc8/v1.12/include\pic16f877.h"
   828                           SPBRG equ 099h ;# 
   829                           # 2021 "C:/Program Files (x86)/Microchip/xc8/v1.12/include\pic16f877.h"
   830                           ADRESL equ 09Eh ;# 
   831                           # 2027 "C:/Program Files (x86)/Microchip/xc8/v1.12/include\pic16f877.h"
   832                           ADCON1 equ 09Fh ;# 
   833                           # 2079 "C:/Program Files (x86)/Microchip/xc8/v1.12/include\pic16f877.h"
   834                           EEDATA equ 010Ch ;# 
   835                           # 2085 "C:/Program Files (x86)/Microchip/xc8/v1.12/include\pic16f877.h"
   836                           EEADR equ 010Dh ;# 
   837                           # 2091 "C:/Program Files (x86)/Microchip/xc8/v1.12/include\pic16f877.h"
   838                           EEDATH equ 010Eh ;# 
   839                           # 2097 "C:/Program Files (x86)/Microchip/xc8/v1.12/include\pic16f877.h"
   840                           EEADRH equ 010Fh ;# 
   841                           # 2103 "C:/Program Files (x86)/Microchip/xc8/v1.12/include\pic16f877.h"
   842                           EECON1 equ 018Ch ;# 
   843                           # 2147 "C:/Program Files (x86)/Microchip/xc8/v1.12/include\pic16f877.h"
   844                           EECON2 equ 018Dh ;# 
   845                           # 46 "C:/Program Files (x86)/Microchip/xc8/v1.12/include\pic16f877.h"
   846                           INDF equ 00h ;# 
   847                           # 52 "C:/Program Files (x86)/Microchip/xc8/v1.12/include\pic16f877.h"
   848                           TMR0 equ 01h ;# 
   849                           # 58 "C:/Program Files (x86)/Microchip/xc8/v1.12/include\pic16f877.h"
   850  0018                     __pmaintext:	;psect for function _main
   851                           opt subtitle "HI-TECH Software Omniscient Code Generator (Lite mode) build 49521"
   852                           
   853                           opt pagewidth 120
   854                           
   855  000E                     	__size_of_main	equ	__end_of_main-_main
   856                           opt subtitle "HI-TECH Software Omniscient Code Generator (Lite mode) build 49521"
   857  0018                     _main:	
   858                           opt subtitle "HI-TECH Software Omniscient Code Generator (Lite mode) build 49521"
   859                           
   860                           opt pagewidth 120
   861                           
   862  0018                     l506:	
   863                           opt subtitle "HI-TECH Software Omniscient Code Generator (Lite mode) build 49521"
   864  0018  120A  118A  2036   	fcall	_ConfigureOscillator
              120A  118A         
   865                           opt subtitle "HI-TECH Software Omniscient Code Generator (Lite mode) build 49521"
   866                           
   867  001D  120A  118A  2035   	fcall	_InitApp
              120A  118A         
   868                           opt subtitle "HI-TECH Software Omniscient Code Generator (Lite mode) build 49521"
   869                           
   870                           opt pagewidth 120
   871  0022                     l28:	
   872                           opt subtitle "HI-TECH Software Omniscient Code Generator (Lite mode) build 49521"
   873                           
   874                           opt pagewidth 120
   875  0022                     l29:	
   876                           opt subtitle "HI-TECH Software Omniscient Code Generator (Lite mode) build 49521"
   877  0022  2822               	goto	l28
   878                           opt subtitle "HI-TECH Software Omniscient Code Generator (Lite mode) build 49521"
   879  0023                     l30:	
   880                           opt subtitle "HI-TECH Software Omniscient Code Generator (Lite mode) build 49521"
   881                           
   882  0023                     l31:	
   883                           opt subtitle "HI-TECH Software Omniscient Code Generator (Lite mode) build 49521"
   884  0023  120A  118A  2812   	ljmp	start
   885                           opt subtitle "HI-TECH Software Omniscient Code Generator (Lite mode) build 49521"
   886                           
   887  0026                     	__end_of_main:
   888                           opt subtitle "HI-TECH Software Omniscient Code Generator (Lite mode) build 49521"
   889                           
   890                           opt pagewidth 120
   891                           
   892                           	opt lm
   893                           
   894                           	processor	16F877
   895                           clrc	macro
   896                           	bcf	3,0
   897                           	endm
   898                           clrz	macro
   899                           	bcf	3,2
   900                           	endm
   901                           setc	macro
   902                           	bsf	3,0
   903                           	endm
   904                           setz	macro
   905                           	bsf	3,2
   906                           	endm
   907                           skipc	macro
   908                           	btfss	3,0
   909                           	endm
   910                           skipz	macro
   911                           	btfss	3,2
   912                           	endm
   913                           skipnc	macro
   914                           	btfsc	3,0
   915                           	endm
   916                           skipnz	macro
   917                           	btfsc	3,2
   918                           	endm
   919                           indf	equ	0
   920                           indf0	equ	0
   921                           pc	equ	2
   922  0035                     __ptext9:	;psect for function _InitApp
   923                           opt subtitle "HI-TECH Software Omniscient Code Generator (Lite mode) build 49521"
   924                           
   925                           opt pagewidth 120
   926                           
   927  0001                     	__size_of_InitApp	equ	__end_of_InitApp-_InitApp
   928                           opt subtitle "HI-TECH Software Omniscient Code Generator (Lite mode) build 49521"
   929  0035                     _InitApp:	
   930                           opt subtitle "HI-TECH Software Omniscient Code Generator (Lite mode) build 49521"
   931                           
   932                           opt pagewidth 120
   933                           
   934  0035                     l49:	
   935  0035  0008               	return
   936                           opt subtitle "HI-TECH Software Omniscient Code Generator (Lite mode) build 49521"
   937                           
   938  0036                     	__end_of_InitApp:
   939                           opt subtitle "HI-TECH Software Omniscient Code Generator (Lite mode) build 49521"
   940                           
   941                           opt pagewidth 120
   942                           
   943                           	opt lm
   944                           
   945                           	processor	16F877
   946                           clrc	macro
   947                           	bcf	3,0
   948                           	endm
   949                           clrz	macro
   950                           	bcf	3,2
   951                           	endm
   952                           setc	macro
   953                           	bsf	3,0
   954                           	endm
   955                           setz	macro
   956                           	bsf	3,2
   957                           	endm
   958                           skipc	macro
   959                           	btfss	3,0
   960                           	endm
   961                           skipz	macro
   962                           	btfss	3,2
   963                           	endm
   964                           skipnc	macro
   965                           	btfsc	3,0
   966                           	endm
   967                           skipnz	macro
   968                           	btfsc	3,2
   969                           	endm
   970                           indf	equ	0
   971                           indf0	equ	0
   972                           pc	equ	2
   973  0036                     __ptext10:	;psect for function _ConfigureOscillator
   974                           opt subtitle "HI-TECH Software Omniscient Code Generator (Lite mode) build 49521"
   975                           
   976                           opt pagewidth 120
   977                           
   978  0001                     	__size_of_ConfigureOscillator	equ	__end_of_ConfigureOscillator-_ConfigureOscillator
   979                           opt subtitle "HI-TECH Software Omniscient Code Generator (Lite mode) build 49521"
   980  0036                     _ConfigureOscillator:	
   981                           opt subtitle "HI-TECH Software Omniscient Code Generator (Lite mode) build 49521"
   982                           
   983                           opt pagewidth 120
   984                           
   985  0036                     l40:	
   986  0036  0008               	return
   987                           opt subtitle "HI-TECH Software Omniscient Code Generator (Lite mode) build 49521"
   988                           
   989  0037                     	__end_of_ConfigureOscillator:
   990                           opt subtitle "HI-TECH Software Omniscient Code Generator (Lite mode) build 49521"
   991                           
   992                           opt pagewidth 120
   993                           
   994                           	opt lm
   995                           
   996                           	processor	16F877
   997                           clrc	macro
   998                           	bcf	3,0
   999                           	endm
  1000                           clrz	macro
  1001                           	bcf	3,2
  1002                           	endm
  1003                           setc	macro
  1004                           	bsf	3,0
  1005                           	endm
  1006                           setz	macro
  1007                           	bsf	3,2
  1008                           	endm
  1009                           skipc	macro
  1010                           	btfss	3,0
  1011                           	endm
  1012                           skipz	macro
  1013                           	btfss	3,2
  1014                           	endm
  1015                           skipnc	macro
  1016                           	btfsc	3,0
  1017                           	endm
  1018                           skipnz	macro
  1019                           	btfsc	3,2
  1020                           	endm
  1021                           indf	equ	0
  1022                           indf0	equ	0
  1023  0026                     __ptext11:	;psect for function _isr
  1024                           opt subtitle "HI-TECH Software Omniscient Code Generator (Lite mode) build 49521"
  1025                           
  1026                           opt pagewidth 120
  1027                           
  1028  000B                     	__size_of_isr	equ	__end_of_isr-_isr
  1029                           opt subtitle "HI-TECH Software Omniscient Code Generator (Lite mode) build 49521"
  1030  0026                     _isr:	
  1031                           opt subtitle "HI-TECH Software Omniscient Code Generator (Lite mode) build 49521"
  1032                           
  1033                           opt pagewidth 120
  1034                           
  1035  0004                     __pintentry:
  1036                           opt subtitle "HI-TECH Software Omniscient Code Generator (Lite mode) build 49521"
  1037  0004                     interrupt_function:
  1038                           opt subtitle "HI-TECH Software Omniscient Code Generator (Lite mode) build 49521"
  1039  007E                     	saved_w	set	btemp+0
  1040  0004  00FE               	movwf	saved_w
  1041  0005  0E03               	swapf	status,w
  1042  0006  00F0               	movwf	(??_isr+0)
  1043  0007  0804               	movf	fsr0,w
  1044  0008  00F1               	movwf	(??_isr+1)
  1045  0009  080A               	movf	pclath,w
  1046  000A  00F2               	movwf	(??_isr+2)
  1047  000B  1283               	bcf	status, 5	;RP0=0, select bank0
  1048  000C  1303               	bcf	status, 6	;RP1=0, select bank0
  1049  000D  087F               	movf	btemp+1,w
  1050  000E  00F3               	movwf	(??_isr+3)
  1051  000F  120A  118A  2826   	ljmp	_isr
  1052                           opt subtitle "HI-TECH Software Omniscient Code Generator (Lite mode) build 49521"
  1053                           
  1054                           opt pagewidth 120
  1055  0026                     i1l15:	
  1056  0026  0873               	movf	(??_isr+3),w
  1057  0027  00FF               	movwf	btemp+1
  1058  0028  0872               	movf	(??_isr+2),w
  1059  0029  008A               	movwf	pclath
  1060  002A  0871               	movf	(??_isr+1),w
  1061  002B  0084               	movwf	fsr0
  1062  002C  0E70               	swapf	(??_isr+0)^0FFFFFF80h,w
  1063  002D  0083               	movwf	status
  1064  002E  0EFE               	swapf	saved_w,f
  1065  002F  0E7E               	swapf	saved_w,w
  1066  0030  0009               	retfie
  1067                           opt subtitle "HI-TECH Software Omniscient Code Generator (Lite mode) build 49521"
  1068                           
  1069  0031                     	__end_of_isr:
  1070                           opt subtitle "HI-TECH Software Omniscient Code Generator (Lite mode) build 49521"
  1071                           
  1072                           opt pagewidth 120
  1073  0000                     __ptext12:	;psect for function _isr
  1074                           opt subtitle "HI-TECH Software Omniscient Code Generator (Lite mode) build 49521"
  1075  007E                     	btemp set 07Eh
  1076                           opt subtitle "HI-TECH Software Omniscient Code Generator (Lite mode) build 49521"
  1077                           
  1078                           opt pagewidth 120
  1079  007E                     	wtemp0 set btemp


Data Sizes:
    Strings     0
    Constant    0
    Data        0
    BSS         0
    Persistent  0
    Stack       0

Auto Spaces:
    Space          Size  Autos    Used
    COMMON           14      4       4
    BANK0            79      0       0
    BANK1            80      0       0
    BANK3            96      0       0
    BANK2            96      0       0

Pointer List with Targets:

    None.

Critical Paths under _main in COMMON

    None.

Critical Paths under _isr in COMMON

    None.

Critical Paths under _main in BANK0

    None.

Critical Paths under _isr in BANK0

    None.

Critical Paths under _main in BANK1

    None.

Critical Paths under _isr in BANK1

    None.

Critical Paths under _main in BANK3

    None.

Critical Paths under _isr in BANK3

    None.

Critical Paths under _main in BANK2

    None.

Critical Paths under _isr in BANK2

    None.

Call Graph Tables:

 ---------------------------------------------------------------------------------
 (Depth) Function   	        Calls       Base Space   Used Autos Params    Refs
 ---------------------------------------------------------------------------------
 (0) _main                                                 0     0      0       0
                _ConfigureOscillator
                            _InitApp
 ---------------------------------------------------------------------------------
 (1) _InitApp                                              0     0      0       0
 ---------------------------------------------------------------------------------
 (1) _ConfigureOscillator                                  0     0      0       0
 ---------------------------------------------------------------------------------
 Estimated maximum stack depth 1
 ---------------------------------------------------------------------------------
 (Depth) Function   	        Calls       Base Space   Used Autos Params    Refs
 ---------------------------------------------------------------------------------
 (2) _isr                                                  4     4      0       0
                                              0 COMMON     4     4      0
 ---------------------------------------------------------------------------------
 Estimated maximum stack depth 2
 ---------------------------------------------------------------------------------

 Call Graph Graphs:

 _main (ROOT)
   _ConfigureOscillator
   _InitApp

 _isr (ROOT)

 Address spaces:
Name               Size   Autos  Total    Cost      Usage
BITCOMMON            E      0       0       0        0.0%
EEDATA             100      0       0       0        0.0%
NULL                 0      0       0       0        0.0%
CODE                 0      0       0       0        0.0%
COMMON               E      4       4       1       28.6%
BITSFR0              0      0       0       1        0.0%
SFR0                 0      0       0       1        0.0%
BITSFR1              0      0       0       2        0.0%
SFR1                 0      0       0       2        0.0%
STACK                0      0       1       2        0.0%
ABS                  0      0       0       3        0.0%
BITBANK0            4F      0       0       4        0.0%
BITSFR3              0      0       0       4        0.0%
SFR3                 0      0       0       4        0.0%
BANK0               4F      0       0       5        0.0%
BITSFR2              0      0       0       5        0.0%
SFR2                 0      0       0       5        0.0%
BITBANK1            50      0       0       6        0.0%
BANK1               50      0       0       7        0.0%
BITBANK3            60      0       0       8        0.0%
BANK3               60      0       0       9        0.0%
BITBANK2            60      0       0      10        0.0%
BANK2               60      0       0      11        0.0%
DATA                 0      0       0      12        0.0%


Microchip Technology PIC Macro Assembler V1.12 build 49521 
Symbol Table                                                                                   Mon Mar 04 22:32:47 2013

                 __CFG_CP$OFF 0000                            l30 0023                            l31 0023  
                          l40 0036                            l28 0022                            l29 0022  
                          l49 0035                   __CFG_LVP$ON 0000                           l506 0018  
                __CFG_CPD$OFF 0000                   __CFG_WRT$ON 0000                           _isr 0026  
                         fsr0 0004                  __CFG_FOSC$HS 0000                          ?_isr 0070  
                        i1l15 0026                          _main 0018                          btemp 007E  
               __CFG_BOREN$ON 0000                          start 0012               __end_of_InitApp 0036  
                       ??_isr 0070                         ?_main 0070                 __CFG_WDTE$OFF 0000  
         _ConfigureOscillator 0036                 __CFG_PWRTE$ON 0000                         pclath 000A  
                       status 0003                         wtemp0 007E          ?_ConfigureOscillator 0070  
             __initialization 0031                  __end_of_main 0026                        ??_main 0074  
                   ??_InitApp 0074         ??_ConfigureOscillator 0074                        saved_w 007E  
     __end_of__initialization 0031                __pcstackCOMMON 0070                    __pmaintext 0018  
                  __pintentry 0004                       _InitApp 0035                       __ptext8 0000  
                     __ptext9 0035                  __size_of_isr 000B          end_of_initialization 0031  
 __end_of_ConfigureOscillator 0037                   ___resetbits 0020           start_initialization 0031  
                 __end_of_isr 0031                   ___powerdown 0103                     ___timeout 0104  
                    ?_InitApp 0070             interrupt_function 0004              __size_of_InitApp 0001  
                    __ptext10 0036                      __ptext11 0026                      __ptext12 0000  
               __size_of_main 000E  __size_of_ConfigureOscillator 0001                      intlevel1 0000  
