__S0 2008 0 ABS 0
__S1 74 0 ABS 0
__S2 0 0 ABS 0
__Hintentry 12 0 CODE 0
__Lintentry 4 0 CODE 0
__CFG_BOREN$ON 0 0 ABS 0
__pintentry 4 0 CODE 0
_isr 26 0 CODE 0
__CFG_PWRTE$ON 0 0 ABS 0
_main 18 0 CODE 0
btemp 7E 0 ABS 0
start 12 0 CODE 0
reset_vec 0 0 CODE 0
wtemp0 7E 0 ABS 0
interrupt_function 4 0 CODE 0
__Hconfig 2008 0 CONFIG 0
__Lconfig 2007 0 CONFIG 0
__Hram 0 0 ABS 0
__Lram 0 0 ABS 0
__size_of_isr 0 0 ABS 0
__Hfunctab 0 0 CODE 0
__Lfunctab 0 0 CODE 0
__Hcommon 0 0 ABS 0
__Lcommon 0 0 ABS 0
__Heeprom_data 0 0 EEDATA 2
__Leeprom_data 0 0 EEDATA 2
__Habs1 0 0 ABS 0
__Labs1 0 0 ABS 0
__Hsfr0 0 0 ABS 0
__Lsfr0 0 0 ABS 0
__Hsfr1 0 0 ABS 0
__Lsfr1 0 0 ABS 0
__Hsfr2 0 0 ABS 0
__Lsfr2 0 0 ABS 0
__Hsfr3 0 0 ABS 0
__Lsfr3 0 0 ABS 0
__Hcode 0 0 ABS 0
__Lcode 0 0 ABS 0
__end_of_ConfigureOscillator 37 0 CODE 0
saved_w 7E 0 ABS 0
__Hinit 15 0 CODE 0
__Linit 12 0 CODE 0
__end_of_main 26 0 CODE 0
__Htext 0 0 ABS 0
__Ltext 0 0 ABS 0
__CFG_LVP$ON 0 0 ABS 0
end_of_initialization 31 0 CODE 0
__CFG_WRT$ON 0 0 ABS 0
__Hstrings 0 0 ABS 0
__Lstrings 0 0 ABS 0
__Hbank0 0 0 ABS 0
__Lbank0 0 0 ABS 0
__Hbank1 0 0 ABS 0
__Lbank1 0 0 ABS 0
__Hbank2 0 0 ABS 0
__Lbank2 0 0 ABS 0
__Hbank3 0 0 ABS 0
__Lbank3 0 0 ABS 0
__Hpowerup 0 0 CODE 0
__Lpowerup 0 0 CODE 0
___timeout 104 0 ABS 0
__ptext8 0 0 CODE 0
__ptext9 35 0 CODE 0
__Hclrtext 0 0 ABS 0
__Lclrtext 0 0 ABS 0
__end_of_InitApp 36 0 CODE 0
__end_of__initialization 31 0 CODE 0
__Hidloc 0 0 IDLOC 0
__Lidloc 0 0 IDLOC 0
_InitApp 35 0 CODE 0
__end_of_isr 31 0 CODE 0
__Hcinit 0 0 ABS 0
__Lcinit 0 0 ABS 0
__CFG_FOSC$HS 0 0 ABS 0
__size_of_ConfigureOscillator 0 0 ABS 0
__size_of_main 0 0 ABS 0
___powerdown 103 0 ABS 0
___resetbits 20 0 ABS 0
__ptext10 36 0 CODE 0
__ptext11 26 0 CODE 0
__ptext12 0 0 CODE 0
__Hend_init 18 0 CODE 0
__Lend_init 15 0 CODE 0
__Hreset_vec 3 0 CODE 0
__Lreset_vec 0 0 CODE 0
intlevel0 0 0 CODE 0
__size_of_InitApp 0 0 ABS 0
__CFG_WDTE$OFF 0 0 ABS 0
intlevel1 0 0 CODE 0
intlevel2 0 0 CODE 0
intlevel3 0 0 CODE 0
intlevel4 0 0 CODE 0
intlevel5 0 0 CODE 0
__HcstackCOMMON 0 0 ABS 0
__LcstackCOMMON 0 0 ABS 0
__pcstackCOMMON 70 0 COMMON 1
__CFG_CPD$OFF 0 0 ABS 0
start_initialization 31 0 CODE 0
__Hmaintext 0 0 ABS 0
__Lmaintext 0 0 ABS 0
__pmaintext 18 0 CODE 0
__initialization 31 0 CODE 0
__CFG_CP$OFF 0 0 ABS 0
_ConfigureOscillator 36 0 CODE 0
%segments
reset_vec 0 5 CODE 0 0
intentry 8 6D CODE 8 0
config 400E 400F CONFIG 400E 0
cstackCOMMON 70 73 COMMON 70 1
%locals
dist/XC8_PIC16F877/production\BelichtungsSteuerung.X.production.obj
C:\Users\A\AppData\Local\Temp\s5m0.
674 31 0 CODE 0
675 32 0 CODE 0
main.c
29 18 0 CODE 0
32 1D 0 CODE 0
35 22 0 CODE 0
40 23 0 CODE 0
user.c
31 35 0 CODE 0
system.c
25 36 0 CODE 0
interrupts.c
50 26 0 CODE 0
24 4 0 CODE 0
